{
  "rules": {
    "no-console": [true, "debug", "time", "timeEnd", "trace"],
    "directive-selector": [true, "attribute", "ng-hackers", "camelCase"],
    "component-selector": [true, "element", "ng-hackers", "kebab-case"]
  }
}
